group,surename,forename,operations,idea,applications,analysis,notes
1,Humphrey,Benjamin Alexander,1,1,0.1,1,
2,Oakley,Casper,1,1,1,1,
3,Evans,David,0.2,1,0.5,1,
4,Khoury,Elias,1,1,1,1,
5,Rozenas,Laurynas,1,0.8,1,1,
6,Haines,Lee,1,1,1,1,
7,Griffin webb,Matthew,1,1,1,1,
8,Shiekh Sroujieh,Omar Ahmad Said,1,1,0.5,1,
9,Davies,Richard William,1,1,1,1,
10,Russell,Samuel Thomas,1,1,1,1,
