((S "From: P.K.Lehre@cs.bham.ac.uk")
 (S "To: some email")
 (S "Subject: Feedback on coursework")

  (S  " Dear ") (C Name)
  
 (S
 "Individual Feedback on NISO Lab 1 - Genetic Algorithms

")

(S "Question 1: ") (C Question1)
(S "Question 2: ") (C Question2)
(S "Question 3: ") (C Question3)
(S "Question 4: ") (C Question4)
(S "Question 5: ") (C Question5)
(S "Question 6: ") (C Question6)

)
